d1bjta_	d1bjta_   	521   	1495   	14950   	21071
d1by5a_	d1by5a_   	833   	1183   	11830   	15847
d1d8ca_	d1d8ca_   	822   	1194   	11940   	16005
d1fepa_	d1fepa_   	289   	1727   	17270   	24325
d1g8ka2	d1g8ka2   	473   	1543   	15430   	21955
d1gk9.1	d1gk9.1   	987   	1029   	10290   	13590
d1h16a_	d1h16a_   	1073   	943   	9430   	12409
d1jb0a_	d1jb0a_   	991   	1025   	10250   	13560
d1jqna_	d1jqna_   	1046   	970   	9700   	12769
d1kk8a2	d1kk8a2   	968   	1048   	10480   	13886
d1kqfa2	d1kqfa2   	872   	1144   	11440   	15240
d1l1la_	d1l1la_   	409   	1607   	16070   	22769
d1m1ca_	d1m1ca_   	69   	1947   	19470   	28141
d1mswd_	d1mswd_   	1129   	887   	8870   	11640
d2b0ta_	d2b0ta_   	1263   	753   	7530   	9799
d2bpta_	d2bpta_   	1111   	905   	9050   	11871
d2btva_	d2btva_   	1594   	422   	4220   	5398
d2clya1	d2clya1   	53   	1258   	13407   	20149
d2gj4a_	d2gj4a_   	994   	1022   	10220   	13493
d3bnea1	d3bnea1   	534   	1482   	14820   	20650
