d3d31a1	d3d31a1   	20   	1996   	19960   	28916   	29349
d3bnea1	d3bnea1   	534   	1482   	14820   	20650   	33155
d2j0111	d2j0111   	17   	1999   	19990   	29082   	29448
d2gj4a_	d2gj4a_   	994   	1022   	10220   	13493   	37875
d2clya1	d2clya1   	19   	1661   	18249   	25548   	32085
d2btva_	d2btva_   	1594   	422   	4220   	5398   	45139
d2bpta_	d2bpta_   	1111   	905   	9050   	11871   	39252
d2b0ta_	d2b0ta_   	1263   	753   	7530   	9799   	41078
d1mswd_	d1mswd_   	1129   	887   	8870   	11640   	39471
d1m9sa3	d1m9sa3   	28   	1988   	19880   	28861   	29465
d1m1ca_	d1m1ca_   	69   	1947   	19470   	28141   	29645
d1l1la_	d1l1la_   	409   	1607   	16070   	22769   	32152
d1kqfa2	d1kqfa2   	872   	1144   	11440   	15240   	36482
d1kk8a2	d1kk8a2   	968   	1048   	10480   	13886   	37583
d1k3xa1	d1k3xa1   	16   	2000   	20000   	29097   	29441
d1jqna_	d1jqna_   	1047   	962   	9679   	12742   	38507
d1jb0a_	d1jb0a_   	991   	1025   	10250   	13560   	37849
d1iwga1	d1iwga1   	29   	1987   	19870   	28968   	29592
d1h16a_	d1h16a_   	1073   	943   	9430   	12409   	38806
d1gk9.1	d1gk9.1   	987   	1029   	10290   	13590   	37793
d1g8ka2	d1g8ka2   	473   	1543   	15430   	21955   	32833
d1fepa_	d1fepa_   	289   	1727   	17270   	24325   	30917
d1de4a2	d1de4a2   	18   	1998   	19980   	29029   	29418
d1by5a_	d1by5a_   	833   	1183   	11830   	15847   	36065
d1bjta_	d1bjta_   	521   	1495   	14950   	21071   	33173
